…
``` r
df_bank %>%
  group_by(age) %>%
  summarise(counting = n()) %>%
  arrange(desc(counting))
```

    ## # A tibble: 77 × 2
    ##      age counting
    ##    <int>    <int>
    ##  1    32     2085
    ##  2    31     1996
    ##  3    33     1972
    ##  4    34     1930
    ##  5    35     1894
    ##  6    36     1806
    ##  7    30     1757
    ##  8    37     1696
    ##  9    39     1487
    ## 10    38     1466
    ## # ℹ 67 more rows
…
